{
  "current_page": 1,
  "data": [
    {
      "id": 497,
      "source_uuid": "232311205",
      "global_source_uuid": "232311205",
      "status_on_source": "Новый",
      "source_id": 1,
      "client_id": 473,
      "grand_total": 24899,
      "total_discount": 0,
      "margin_sum": 24899,
      "expenses_sum": 0,
      "discount_amount": null,
      "discount_percent": null,
      "shipping_price": null,
      "taxes": null,
      "register_id": null,
      "fiscal_result": [],
      "fiscal_status": null,
      "shipping_type_id": null,
      "status_group_id": 1,
      "status_id": 1,
      "status_expired_at": null,
      "status_changed_at": "2023-03-14T07:05:10.000000Z",
      "parent_id": null,
      "manager_comment": null,
      "client_comment": "Скільки буде комісія на?",
      "is_gift": false,
      "promocode": null,
      "wrap_price": null,
      "gift_wrap": false,
      "payment_status": "not_paid",
      "gift_message": null,
      "last_synced_at": "2023-03-14 07:16:11",
      "created_at": "2023-03-14T07:05:10.000000Z",
      "updated_at": "2023-03-14T07:16:11.000000Z",
      "closed_at": null,
      "ordered_at": "2023-03-14T07:01:24.000000Z",
      "source_updated_at": "2023-03-14T07:02:15.000000Z",
      "deleted_at": null,
      "payments_total": 0,
      "is_expired": false,
      "has_reserves": false,
      "buyer_comment": "Скільки буде комісія на?"
    },
    {
      "id": 510,
      "source_uuid": "232395780",
      "global_source_uuid": "232395780",
      "status_on_source": "Відмова від замовлення",
      "source_id": 1,
      "client_id": 486,
      "grand_total": 7200,
      "total_discount": 0,
      "margin_sum": 7200,
      "expenses_sum": 0,
      "discount_amount": null,
      "discount_percent": null,
      "shipping_price": null,
      "taxes": null,
      "register_id": null,
      "fiscal_result": [],
      "fiscal_status": null,
      "shipping_type_id": null,
      "status_group_id": 1,
      "status_id": 1,
      "status_expired_at": null,
      "status_changed_at": "2023-03-14T15:29:13.000000Z",
      "parent_id": null,
      "manager_comment": null,
      "client_comment": null,
      "is_gift": false,
      "promocode": null,
      "wrap_price": null,
      "gift_wrap": false,
      "payment_status": "not_paid",
      "gift_message": null,
      "last_synced_at": "2023-03-20 10:07:42",
      "created_at": "2023-03-14T15:29:13.000000Z",
      "updated_at": "2023-03-20T10:07:42.000000Z",
      "closed_at": null,
      "ordered_at": "2023-03-14T15:24:52.000000Z",
      "source_updated_at": "2023-03-14T15:24:52.000000Z",
      "deleted_at": null,
      "payments_total": 0,
      "is_expired": false,
      "has_reserves": false,
      "buyer_comment": null
    },
    {
      "id": 517,
      "source_uuid": "232452547",
      "global_source_uuid": "232452547",
      "status_on_source": "Відмова від замовлення",
      "source_id": 1,
      "client_id": 492,
      "grand_total": 20200,
      "total_discount": 0,
      "margin_sum": 20200,
      "expenses_sum": 0,
      "discount_amount": null,
      "discount_percent": null,
      "shipping_price": null,
      "taxes": null,
      "register_id": null,
      "fiscal_result": [],
      "fiscal_status": null,
      "shipping_type_id": null,
      "status_group_id": 1,
      "status_id": 1,
      "status_expired_at": null,
      "status_changed_at": "2023-03-15T06:21:05.000000Z",
      "parent_id": null,
      "manager_comment": null,
      "client_comment": null,
      "is_gift": false,
      "promocode": null,
      "wrap_price": null,
      "gift_wrap": false,
      "payment_status": "not_paid",
      "gift_message": null,
      "last_synced_at": "2023-03-20 10:07:42",
      "created_at": "2023-03-15T06:21:05.000000Z",
      "updated_at": "2023-03-20T10:07:42.000000Z",
      "closed_at": null,
      "ordered_at": "2023-03-15T06:20:04.000000Z",
      "source_updated_at": "2023-03-15T06:20:04.000000Z",
      "deleted_at": null,
      "payments_total": 0,
      "is_expired": false,
      "has_reserves": false,
      "buyer_comment": null
    },
    {
      "id": 522,
      "source_uuid": "232514715",
      "global_source_uuid": "232514715",
      "status_on_source": "Відмова від замовлення",
      "source_id": 1,
      "client_id": 497,
      "grand_total": 51599,
      "total_discount": 0,
      "margin_sum": 51599,
      "expenses_sum": 0,
      "discount_amount": null,
      "discount_percent": null,
      "shipping_price": null,
      "taxes": null,
      "register_id": null,
      "fiscal_result": [],
      "fiscal_status": null,
      "shipping_type_id": null,
      "status_group_id": 1,
      "status_id": 1,
      "status_expired_at": null,
      "status_changed_at": "2023-03-15T12:45:15.000000Z",
      "parent_id": null,
      "manager_comment": null,
      "client_comment": null,
      "is_gift": false,
      "promocode": null,
      "wrap_price": null,
      "gift_wrap": false,
      "payment_status": "not_paid",
      "gift_message": null,
      "last_synced_at": "2023-03-20 10:07:42",
      "created_at": "2023-03-15T12:45:15.000000Z",
      "updated_at": "2023-03-20T10:07:42.000000Z",
      "closed_at": null,
      "ordered_at": "2023-03-15T12:38:48.000000Z",
      "source_updated_at": "2023-03-15T12:38:49.000000Z",
      "deleted_at": null,
      "payments_total": 0,
      "is_expired": false,
      "has_reserves": false,
      "buyer_comment": null
    },
    {
      "id": 529,
      "source_uuid": "232567964",
      "global_source_uuid": "232567964",
      "status_on_source": "Відмова від замовлення",
      "source_id": 1,
      "client_id": 503,
      "grand_total": 5499,
      "total_discount": 0,
      "margin_sum": 5499,
      "expenses_sum": 0,
      "discount_amount": null,
      "discount_percent": null,
      "shipping_price": null,
      "taxes": null,
      "register_id": null,
      "fiscal_result": [],
      "fiscal_status": null,
      "shipping_type_id": null,
      "status_group_id": 1,
      "status_id": 1,
      "status_expired_at": null,
      "status_changed_at": "2023-03-15T18:59:11.000000Z",
      "parent_id": null,
      "manager_comment": null,
      "client_comment": null,
      "is_gift": false,
      "promocode": null,
      "wrap_price": null,
      "gift_wrap": false,
      "payment_status": "not_paid",
      "gift_message": null,
      "last_synced_at": "2023-03-20 10:07:42",
      "created_at": "2023-03-15T18:59:11.000000Z",
      "updated_at": "2023-03-20T10:07:42.000000Z",
      "closed_at": null,
      "ordered_at": "2023-03-15T18:52:26.000000Z",
      "source_updated_at": "2023-03-15T18:52:26.000000Z",
      "deleted_at": null,
      "payments_total": 0,
      "is_expired": false,
      "has_reserves": false,
      "buyer_comment": null
    },
    {
      "id": 534,
      "source_uuid": "232638877",
      "global_source_uuid": "232638877",
      "status_on_source": "Відмова від замовлення",
      "source_id": 1,
      "client_id": 508,
      "grand_total": 8199,
      "total_discount": 0,
      "margin_sum": 8199,
      "expenses_sum": 0,
      "discount_amount": null,
      "discount_percent": null,
      "shipping_price": null,
      "taxes": null,
      "register_id": null,
      "fiscal_result": [],
      "fiscal_status": null,
      "shipping_type_id": null,
      "status_group_id": 1,
      "status_id": 1,
      "status_expired_at": null,
      "status_changed_at": "2023-03-16T10:46:27.000000Z",
      "parent_id": null,
      "manager_comment": null,
      "client_comment": null,
      "is_gift": false,
      "promocode": null,
      "wrap_price": null,
      "gift_wrap": false,
      "payment_status": "not_paid",
      "gift_message": null,
      "last_synced_at": "2023-03-20 10:07:42",
      "created_at": "2023-03-16T10:46:27.000000Z",
      "updated_at": "2023-03-20T10:07:42.000000Z",
      "closed_at": null,
      "ordered_at": "2023-03-16T10:36:18.000000Z",
      "source_updated_at": "2023-03-16T10:38:20.000000Z",
      "deleted_at": null,
      "payments_total": 0,
      "is_expired": false,
      "has_reserves": false,
      "buyer_comment": null
    },
    {
      "id": 557,
      "source_uuid": "232837514",
      "global_source_uuid": "232837514",
      "status_on_source": "Новый",
      "source_id": 1,
      "client_id": 530,
      "grand_total": 20200,
      "total_discount": 0,
      "margin_sum": 20200,
      "expenses_sum": 0,
      "discount_amount": null,
      "discount_percent": null,
      "shipping_price": null,
      "taxes": null,
      "register_id": null,
      "fiscal_result": [],
      "fiscal_status": null,
      "shipping_type_id": null,
      "status_group_id": 1,
      "status_id": 1,
      "status_expired_at": null,
      "status_changed_at": "2023-03-17T17:51:24.000000Z",
      "parent_id": null,
      "manager_comment": null,
      "client_comment": null,
      "is_gift": false,
      "promocode": null,
      "wrap_price": null,
      "gift_wrap": false,
      "payment_status": "not_paid",
      "gift_message": null,
      "last_synced_at": "2023-03-17 18:02:12",
      "created_at": "2023-03-17T17:51:24.000000Z",
      "updated_at": "2023-03-17T18:02:12.000000Z",
      "closed_at": null,
      "ordered_at": "2023-03-17T17:43:10.000000Z",
      "source_updated_at": "2023-03-17T17:43:11.000000Z",
      "deleted_at": null,
      "payments_total": 0,
      "is_expired": false,
      "has_reserves": false,
      "buyer_comment": null
    },
    {
      "id": 564,
      "source_uuid": "232991153",
      "global_source_uuid": "232991153",
      "status_on_source": "Новый",
      "source_id": 1,
      "client_id": 536,
      "grand_total": 2399,
      "total_discount": 0,
      "margin_sum": 2399,
      "expenses_sum": 0,
      "discount_amount": null,
      "discount_percent": null,
      "shipping_price": null,
      "taxes": null,
      "register_id": null,
      "fiscal_result": [],
      "fiscal_status": null,
      "shipping_type_id": null,
      "status_group_id": 1,
      "status_id": 1,
      "status_expired_at": null,
      "status_changed_at": "2023-03-19T08:15:13.000000Z",
      "parent_id": null,
      "manager_comment": null,
      "client_comment": null,
      "is_gift": false,
      "promocode": null,
      "wrap_price": null,
      "gift_wrap": false,
      "payment_status": "not_paid",
      "gift_message": null,
      "last_synced_at": "2023-03-20 15:05:12",
      "created_at": "2023-03-19T08:15:13.000000Z",
      "updated_at": "2023-03-20T15:05:12.000000Z",
      "closed_at": null,
      "ordered_at": "2023-03-19T08:03:24.000000Z",
      "source_updated_at": "2023-03-19T08:04:42.000000Z",
      "deleted_at": null,
      "payments_total": 0,
      "is_expired": false,
      "has_reserves": false,
      "buyer_comment": null
    },
    {
      "id": 567,
      "source_uuid": "233023760",
      "global_source_uuid": "233023760",
      "status_on_source": "Новый",
      "source_id": 1,
      "client_id": 539,
      "grand_total": 53999,
      "total_discount": 0,
      "margin_sum": 53999,
      "expenses_sum": 0,
      "discount_amount": null,
      "discount_percent": null,
      "shipping_price": null,
      "taxes": null,
      "register_id": null,
      "fiscal_result": [],
      "fiscal_status": null,
      "shipping_type_id": null,
      "status_group_id": 1,
      "status_id": 1,
      "status_expired_at": null,
      "status_changed_at": "2023-03-19T12:29:15.000000Z",
      "parent_id": null,
      "manager_comment": null,
      "client_comment": null,
      "is_gift": false,
      "promocode": null,
      "wrap_price": null,
      "gift_wrap": false,
      "payment_status": "not_paid",
      "gift_message": null,
      "last_synced_at": "2023-03-19 12:40:20",
      "created_at": "2023-03-19T12:29:15.000000Z",
      "updated_at": "2023-03-19T12:40:20.000000Z",
      "closed_at": null,
      "ordered_at": "2023-03-19T12:21:14.000000Z",
      "source_updated_at": "2023-03-19T12:21:15.000000Z",
      "deleted_at": null,
      "payments_total": 0,
      "is_expired": false,
      "has_reserves": false,
      "buyer_comment": null
    },
    {
      "id": 569,
      "source_uuid": "233069768",
      "global_source_uuid": "233069768",
      "status_on_source": "Новый",
      "source_id": 1,
      "client_id": 541,
      "grand_total": 7200,
      "total_discount": 0,
      "margin_sum": 7200,
      "expenses_sum": 0,
      "discount_amount": null,
      "discount_percent": null,
      "shipping_price": null,
      "taxes": null,
      "register_id": null,
      "fiscal_result": [],
      "fiscal_status": null,
      "shipping_type_id": null,
      "status_group_id": 1,
      "status_id": 1,
      "status_expired_at": null,
      "status_changed_at": "2023-03-19T18:45:13.000000Z",
      "parent_id": null,
      "manager_comment": null,
      "client_comment": null,
      "is_gift": false,
      "promocode": null,
      "wrap_price": null,
      "gift_wrap": false,
      "payment_status": "not_paid",
      "gift_message": null,
      "last_synced_at": "2023-03-19 18:56:14",
      "created_at": "2023-03-19T18:45:13.000000Z",
      "updated_at": "2023-03-19T18:56:14.000000Z",
      "closed_at": null,
      "ordered_at": "2023-03-19T18:37:20.000000Z",
      "source_updated_at": "2023-03-19T18:37:21.000000Z",
      "deleted_at": null,
      "payments_total": 0,
      "is_expired": false,
      "has_reserves": false,
      "buyer_comment": null
    },
    {
      "id": 574,
      "source_uuid": "233124239",
      "global_source_uuid": "233124239",
      "status_on_source": "Відмова від замовлення",
      "source_id": 1,
      "client_id": 545,
      "grand_total": 67996,
      "total_discount": 0,
      "margin_sum": 67996,
      "expenses_sum": 0,
      "discount_amount": null,
      "discount_percent": null,
      "shipping_price": null,
      "taxes": null,
      "register_id": null,
      "fiscal_result": [],
      "fiscal_status": null,
      "shipping_type_id": null,
      "status_group_id": 1,
      "status_id": 1,
      "status_expired_at": null,
      "status_changed_at": "2023-03-20T09:01:26.000000Z",
      "parent_id": null,
      "manager_comment": null,
      "client_comment": null,
      "is_gift": false,
      "promocode": null,
      "wrap_price": null,
      "gift_wrap": false,
      "payment_status": "not_paid",
      "gift_message": null,
      "last_synced_at": "2023-03-20 10:40:20",
      "created_at": "2023-03-20T09:01:26.000000Z",
      "updated_at": "2023-03-20T10:40:20.000000Z",
      "closed_at": null,
      "ordered_at": "2023-03-20T08:52:34.000000Z",
      "source_updated_at": "2023-03-20T08:52:35.000000Z",
      "deleted_at": null,
      "payments_total": 0,
      "is_expired": false,
      "has_reserves": false,
      "buyer_comment": null
    },
    {
      "id": 583,
      "source_uuid": "233196894",
      "global_source_uuid": "233196894",
      "status_on_source": "Новый",
      "source_id": 1,
      "client_id": 554,
      "grand_total": 7200,
      "total_discount": 0,
      "margin_sum": 7200,
      "expenses_sum": 0,
      "discount_amount": null,
      "discount_percent": null,
      "shipping_price": null,
      "taxes": null,
      "register_id": null,
      "fiscal_result": [],
      "fiscal_status": null,
      "shipping_type_id": null,
      "status_group_id": 1,
      "status_id": 1,
      "status_expired_at": null,
      "status_changed_at": "2023-03-20T15:48:25.000000Z",
      "parent_id": null,
      "manager_comment": null,
      "client_comment": null,
      "is_gift": false,
      "promocode": null,
      "wrap_price": null,
      "gift_wrap": false,
      "payment_status": "not_paid",
      "gift_message": null,
      "last_synced_at": "2023-03-20 15:59:17",
      "created_at": "2023-03-20T15:48:25.000000Z",
      "updated_at": "2023-03-20T15:59:17.000000Z",
      "closed_at": null,
      "ordered_at": "2023-03-20T15:44:16.000000Z",
      "source_updated_at": "2023-03-20T15:47:07.000000Z",
      "deleted_at": null,
      "payments_total": 0,
      "is_expired": false,
      "has_reserves": false,
      "buyer_comment": null
    },
    {
      "id": 584,
      "source_uuid": "233198870",
      "global_source_uuid": "233198870",
      "status_on_source": "Принят",
      "source_id": 1,
      "client_id": 555,
      "grand_total": 8599,
      "total_discount": 0,
      "margin_sum": 8599,
      "expenses_sum": 0,
      "discount_amount": null,
      "discount_percent": null,
      "shipping_price": null,
      "taxes": null,
      "register_id": null,
      "fiscal_result": [],
      "fiscal_status": null,
      "shipping_type_id": null,
      "status_group_id": 1,
      "status_id": 1,
      "status_expired_at": null,
      "status_changed_at": "2023-03-20T16:10:24.000000Z",
      "parent_id": null,
      "manager_comment": null,
      "client_comment": null,
      "is_gift": false,
      "promocode": null,
      "wrap_price": null,
      "gift_wrap": false,
      "payment_status": "not_paid",
      "gift_message": null,
      "last_synced_at": "2023-03-20 16:21:19",
      "created_at": "2023-03-20T16:10:24.000000Z",
      "updated_at": "2023-03-20T16:21:19.000000Z",
      "closed_at": null,
      "ordered_at": "2023-03-20T15:58:57.000000Z",
      "source_updated_at": "2023-03-20T16:07:59.000000Z",
      "deleted_at": null,
      "payments_total": 0,
      "is_expired": false,
      "has_reserves": false,
      "buyer_comment": null
    },
    {
      "id": 586,
      "source_uuid": "233228975",
      "global_source_uuid": "233228975",
      "status_on_source": "Відмова від замовлення",
      "source_id": 1,
      "client_id": 557,
      "grand_total": 19499,
      "total_discount": 0,
      "margin_sum": 19499,
      "expenses_sum": 0,
      "discount_amount": null,
      "discount_percent": null,
      "shipping_price": null,
      "taxes": null,
      "register_id": null,
      "fiscal_result": [],
      "fiscal_status": null,
      "shipping_type_id": null,
      "status_group_id": 1,
      "status_id": 1,
      "status_expired_at": null,
      "status_changed_at": "2023-03-20T20:01:13.000000Z",
      "parent_id": null,
      "manager_comment": null,
      "client_comment": null,
      "is_gift": false,
      "promocode": null,
      "wrap_price": null,
      "gift_wrap": false,
      "payment_status": "not_paid",
      "gift_message": null,
      "last_synced_at": "2023-03-21 10:40:10",
      "created_at": "2023-03-20T20:01:13.000000Z",
      "updated_at": "2023-03-21T10:40:10.000000Z",
      "closed_at": null,
      "ordered_at": "2023-03-20T19:49:09.000000Z",
      "source_updated_at": "2023-03-20T19:49:09.000000Z",
      "deleted_at": null,
      "payments_total": 0,
      "is_expired": false,
      "has_reserves": false,
      "buyer_comment": null
    },
    {
      "id": 588,
      "source_uuid": "233263572",
      "global_source_uuid": "233263572",
      "status_on_source": "Відмова від замовлення",
      "source_id": 1,
      "client_id": 559,
      "grand_total": 7200,
      "total_discount": 0,
      "margin_sum": 7200,
      "expenses_sum": 0,
      "discount_amount": null,
      "discount_percent": null,
      "shipping_price": null,
      "taxes": null,
      "register_id": null,
      "fiscal_result": [],
      "fiscal_status": null,
      "shipping_type_id": null,
      "status_group_id": 1,
      "status_id": 1,
      "status_expired_at": null,
      "status_changed_at": "2023-03-21T08:05:11.000000Z",
      "parent_id": null,
      "manager_comment": null,
      "client_comment": null,
      "is_gift": false,
      "promocode": null,
      "wrap_price": null,
      "gift_wrap": false,
      "payment_status": "not_paid",
      "gift_message": null,
      "last_synced_at": "2023-03-21 08:38:11",
      "created_at": "2023-03-21T08:05:11.000000Z",
      "updated_at": "2023-03-21T08:38:11.000000Z",
      "closed_at": null,
      "ordered_at": "2023-03-21T07:58:29.000000Z",
      "source_updated_at": "2023-03-21T07:59:25.000000Z",
      "deleted_at": null,
      "payments_total": 0,
      "is_expired": false,
      "has_reserves": false,
      "buyer_comment": null
    }
  ],
  "first_page_url": "https://openapi.keycrm.app/v1/order?limit=15&sort=id&filter%5Bstatus_id%5D=1&page=1",
  "from": 1,
  "last_page": 2,
  "last_page_url": "https://openapi.keycrm.app/v1/order?limit=15&sort=id&filter%5Bstatus_id%5D=1&page=2",
  "next_page_url": "https://openapi.keycrm.app/v1/order?limit=15&sort=id&filter%5Bstatus_id%5D=1&page=2",
  "path": "https://openapi.keycrm.app/v1/order",
  "per_page": 15,
  "prev_page_url": null,
  "to": 15,
  "total": 21
}
